%YAML 1.1
%TAG !u! tag:unity3d.com,2011:
--- !u!114 &11400000
MonoBehaviour:
  m_ObjectHideFlags: 0
  m_CorrespondingSourceObject: {fileID: 0}
  m_PrefabInstance: {fileID: 0}
  m_PrefabAsset: {fileID: 0}
  m_GameObject: {fileID: 0}
  m_Enabled: 1
  m_EditorHideFlags: 0
  m_Script: {fileID: 11500000, guid: c333ccfdd0cbdbc4ca30cef2dd6e6b9b, type: 3}
  m_Name: TVManagedWhitelist
  m_EditorClassIdentifier: 
  serializedUdonProgramAsset: {fileID: 11400000, guid: bf305264cacbe7949981c81ae5addab5,
    type: 2}
  udonAssembly: 
  assemblyError: 
  sourceCsScript: {fileID: 11500000, guid: 6b5b518aed5347bcb5c14a59ff419f14, type: 3}
  scriptVersion: 2
  compiledVersion: 2
  behaviourSyncMode: 4
  hasInteractEvent: 0
  scriptID: 3029875548196048330
  serializationData:
    SerializedFormat: 2
    SerializedBytes: 
    ReferencedUnityObjects: []
    SerializedBytesString: 
    Prefab: {fileID: 0}
    PrefabModificationsReferencedUnityObjects: []
    PrefabModifications: []
    SerializationNodes:
    - Name: fieldDefinitions
      Entry: 7
      Data: 0|System.Collections.Generic.Dictionary`2[[System.String, mscorlib],[UdonSharp.Compiler.FieldDefinition,
        UdonSharp.Editor]], mscorlib
    - Name: comparer
      Entry: 7
      Data: 1|System.Collections.Generic.GenericEqualityComparer`1[[System.String,
        mscorlib]], mscorlib
    - Name: 
      Entry: 8
      Data: 
    - Name: 
      Entry: 12
      Data: 50
    - Name: 
      Entry: 7
      Data: 
    - Name: $k
      Entry: 1
      Data: V3ONE
    - Name: $v
      Entry: 7
      Data: 2|UdonSharp.Compiler.FieldDefinition, UdonSharp.Editor
    - Name: <Name>k__BackingField
      Entry: 1
      Data: V3ONE
    - Name: <UserType>k__BackingField
      Entry: 7
      Data: 3|System.RuntimeType, mscorlib
    - Name: 
      Entry: 1
      Data: UnityEngine.Vector3, UnityEngine.CoreModule
    - Name: 
      Entry: 8
      Data: 
    - Name: <SystemType>k__BackingField
      Entry: 9
      Data: 3
    - Name: <SyncMode>k__BackingField
      Entry: 7
      Data: System.Nullable`1[[UdonSharp.UdonSyncMode, UdonSharp.Runtime]], mscorlib
    - Name: 
      Entry: 6
      Data: 
    - Name: 
      Entry: 8
      Data: 
    - Name: <IsSerialized>k__BackingField
      Entry: 5
      Data: false
    - Name: _fieldAttributes
      Entry: 7
      Data: 4|System.Collections.Generic.List`1[[System.Attribute, mscorlib]], mscorlib
    - Name: 
      Entry: 12
      Data: 0
    - Name: 
      Entry: 13
      Data: 
    - Name: 
      Entry: 8
      Data: 
    - Name: 
      Entry: 8
      Data: 
    - Name: 
      Entry: 8
      Data: 
    - Name: 
      Entry: 7
      Data: 
    - Name: $k
      Entry: 1
      Data: V3HALF
    - Name: $v
      Entry: 7
      Data: 5|UdonSharp.Compiler.FieldDefinition, UdonSharp.Editor
    - Name: <Name>k__BackingField
      Entry: 1
      Data: V3HALF
    - Name: <UserType>k__BackingField
      Entry: 9
      Data: 3
    - Name: <SystemType>k__BackingField
      Entry: 9
      Data: 3
    - Name: <SyncMode>k__BackingField
      Entry: 7
      Data: System.Nullable`1[[UdonSharp.UdonSyncMode, UdonSharp.Runtime]], mscorlib
    - Name: 
      Entry: 6
      Data: 
    - Name: 
      Entry: 8
      Data: 
    - Name: <IsSerialized>k__BackingField
      Entry: 5
      Data: false
    - Name: _fieldAttributes
      Entry: 7
      Data: 6|System.Collections.Generic.List`1[[System.Attribute, mscorlib]], mscorlib
    - Name: 
      Entry: 12
      Data: 0
    - Name: 
      Entry: 13
      Data: 
    - Name: 
      Entry: 8
      Data: 
    - Name: 
      Entry: 8
      Data: 
    - Name: 
      Entry: 8
      Data: 
    - Name: 
      Entry: 7
      Data: 
    - Name: $k
      Entry: 1
      Data: V3ZERO
    - Name: $v
      Entry: 7
      Data: 7|UdonSharp.Compiler.FieldDefinition, UdonSharp.Editor
    - Name: <Name>k__BackingField
      Entry: 1
      Data: V3ZERO
    - Name: <UserType>k__BackingField
      Entry: 9
      Data: 3
    - Name: <SystemType>k__BackingField
      Entry: 9
      Data: 3
    - Name: <SyncMode>k__BackingField
      Entry: 7
      Data: System.Nullable`1[[UdonSharp.UdonSyncMode, UdonSharp.Runtime]], mscorlib
    - Name: 
      Entry: 6
      Data: 
    - Name: 
      Entry: 8
      Data: 
    - Name: <IsSerialized>k__BackingField
      Entry: 5
      Data: false
    - Name: _fieldAttributes
      Entry: 7
      Data: 8|System.Collections.Generic.List`1[[System.Attribute, mscorlib]], mscorlib
    - Name: 
      Entry: 12
      Data: 0
    - Name: 
      Entry: 13
      Data: 
    - Name: 
      Entry: 8
      Data: 
    - Name: 
      Entry: 8
      Data: 
    - Name: 
      Entry: 8
      Data: 
    - Name: 
      Entry: 7
      Data: 
    - Name: $k
      Entry: 1
      Data: V3NEGHALF
    - Name: $v
      Entry: 7
      Data: 9|UdonSharp.Compiler.FieldDefinition, UdonSharp.Editor
    - Name: <Name>k__BackingField
      Entry: 1
      Data: V3NEGHALF
    - Name: <UserType>k__BackingField
      Entry: 9
      Data: 3
    - Name: <SystemType>k__BackingField
      Entry: 9
      Data: 3
    - Name: <SyncMode>k__BackingField
      Entry: 7
      Data: System.Nullable`1[[UdonSharp.UdonSyncMode, UdonSharp.Runtime]], mscorlib
    - Name: 
      Entry: 6
      Data: 
    - Name: 
      Entry: 8
      Data: 
    - Name: <IsSerialized>k__BackingField
      Entry: 5
      Data: false
    - Name: _fieldAttributes
      Entry: 7
      Data: 10|System.Collections.Generic.List`1[[System.Attribute, mscorlib]], mscorlib
    - Name: 
      Entry: 12
      Data: 0
    - Name: 
      Entry: 13
      Data: 
    - Name: 
      Entry: 8
      Data: 
    - Name: 
      Entry: 8
      Data: 
    - Name: 
      Entry: 8
      Data: 
    - Name: 
      Entry: 7
      Data: 
    - Name: $k
      Entry: 1
      Data: V3NEGONE
    - Name: $v
      Entry: 7
      Data: 11|UdonSharp.Compiler.FieldDefinition, UdonSharp.Editor
    - Name: <Name>k__BackingField
      Entry: 1
      Data: V3NEGONE
    - Name: <UserType>k__BackingField
      Entry: 9
      Data: 3
    - Name: <SystemType>k__BackingField
      Entry: 9
      Data: 3
    - Name: <SyncMode>k__BackingField
      Entry: 7
      Data: System.Nullable`1[[UdonSharp.UdonSyncMode, UdonSharp.Runtime]], mscorlib
    - Name: 
      Entry: 6
      Data: 
    - Name: 
      Entry: 8
      Data: 
    - Name: <IsSerialized>k__BackingField
      Entry: 5
      Data: false
    - Name: _fieldAttributes
      Entry: 7
      Data: 12|System.Collections.Generic.List`1[[System.Attribute, mscorlib]], mscorlib
    - Name: 
      Entry: 12
      Data: 0
    - Name: 
      Entry: 13
      Data: 
    - Name: 
      Entry: 8
      Data: 
    - Name: 
      Entry: 8
      Data: 
    - Name: 
      Entry: 8
      Data: 
    - Name: 
      Entry: 7
      Data: 
    - Name: $k
      Entry: 1
      Data: V3FORWARD
    - Name: $v
      Entry: 7
      Data: 13|UdonSharp.Compiler.FieldDefinition, UdonSharp.Editor
    - Name: <Name>k__BackingField
      Entry: 1
      Data: V3FORWARD
    - Name: <UserType>k__BackingField
      Entry: 9
      Data: 3
    - Name: <SystemType>k__BackingField
      Entry: 9
      Data: 3
    - Name: <SyncMode>k__BackingField
      Entry: 7
      Data: System.Nullable`1[[UdonSharp.UdonSyncMode, UdonSharp.Runtime]], mscorlib
    - Name: 
      Entry: 6
      Data: 
    - Name: 
      Entry: 8
      Data: 
    - Name: <IsSerialized>k__BackingField
      Entry: 5
      Data: false
    - Name: _fieldAttributes
      Entry: 7
      Data: 14|System.Collections.Generic.List`1[[System.Attribute, mscorlib]], mscorlib
    - Name: 
      Entry: 12
      Data: 0
    - Name: 
      Entry: 13
      Data: 
    - Name: 
      Entry: 8
      Data: 
    - Name: 
      Entry: 8
      Data: 
    - Name: 
      Entry: 8
      Data: 
    - Name: 
      Entry: 7
      Data: 
    - Name: $k
      Entry: 1
      Data: V3UP
    - Name: $v
      Entry: 7
      Data: 15|UdonSharp.Compiler.FieldDefinition, UdonSharp.Editor
    - Name: <Name>k__BackingField
      Entry: 1
      Data: V3UP
    - Name: <UserType>k__BackingField
      Entry: 9
      Data: 3
    - Name: <SystemType>k__BackingField
      Entry: 9
      Data: 3
    - Name: <SyncMode>k__BackingField
      Entry: 7
      Data: System.Nullable`1[[UdonSharp.UdonSyncMode, UdonSharp.Runtime]], mscorlib
    - Name: 
      Entry: 6
      Data: 
    - Name: 
      Entry: 8
      Data: 
    - Name: <IsSerialized>k__BackingField
      Entry: 5
      Data: false
    - Name: _fieldAttributes
      Entry: 7
      Data: 16|System.Collections.Generic.List`1[[System.Attribute, mscorlib]], mscorlib
    - Name: 
      Entry: 12
      Data: 0
    - Name: 
      Entry: 13
      Data: 
    - Name: 
      Entry: 8
      Data: 
    - Name: 
      Entry: 8
      Data: 
    - Name: 
      Entry: 8
      Data: 
    - Name: 
      Entry: 7
      Data: 
    - Name: $k
      Entry: 1
      Data: V3RIGHT
    - Name: $v
      Entry: 7
      Data: 17|UdonSharp.Compiler.FieldDefinition, UdonSharp.Editor
    - Name: <Name>k__BackingField
      Entry: 1
      Data: V3RIGHT
    - Name: <UserType>k__BackingField
      Entry: 9
      Data: 3
    - Name: <SystemType>k__BackingField
      Entry: 9
      Data: 3
    - Name: <SyncMode>k__BackingField
      Entry: 7
      Data: System.Nullable`1[[UdonSharp.UdonSyncMode, UdonSharp.Runtime]], mscorlib
    - Name: 
      Entry: 6
      Data: 
    - Name: 
      Entry: 8
      Data: 
    - Name: <IsSerialized>k__BackingField
      Entry: 5
      Data: false
    - Name: _fieldAttributes
      Entry: 7
      Data: 18|System.Collections.Generic.List`1[[System.Attribute, mscorlib]], mscorlib
    - Name: 
      Entry: 12
      Data: 0
    - Name: 
      Entry: 13
      Data: 
    - Name: 
      Entry: 8
      Data: 
    - Name: 
      Entry: 8
      Data: 
    - Name: 
      Entry: 8
      Data: 
    - Name: 
      Entry: 7
      Data: 
    - Name: $k
      Entry: 1
      Data: V3INF
    - Name: $v
      Entry: 7
      Data: 19|UdonSharp.Compiler.FieldDefinition, UdonSharp.Editor
    - Name: <Name>k__BackingField
      Entry: 1
      Data: V3INF
    - Name: <UserType>k__BackingField
      Entry: 9
      Data: 3
    - Name: <SystemType>k__BackingField
      Entry: 9
      Data: 3
    - Name: <SyncMode>k__BackingField
      Entry: 7
      Data: System.Nullable`1[[UdonSharp.UdonSyncMode, UdonSharp.Runtime]], mscorlib
    - Name: 
      Entry: 6
      Data: 
    - Name: 
      Entry: 8
      Data: 
    - Name: <IsSerialized>k__BackingField
      Entry: 5
      Data: false
    - Name: _fieldAttributes
      Entry: 7
      Data: 20|System.Collections.Generic.List`1[[System.Attribute, mscorlib]], mscorlib
    - Name: 
      Entry: 12
      Data: 0
    - Name: 
      Entry: 13
      Data: 
    - Name: 
      Entry: 8
      Data: 
    - Name: 
      Entry: 8
      Data: 
    - Name: 
      Entry: 8
      Data: 
    - Name: 
      Entry: 7
      Data: 
    - Name: $k
      Entry: 1
      Data: _maxLogLevel
    - Name: $v
      Entry: 7
      Data: 21|UdonSharp.Compiler.FieldDefinition, UdonSharp.Editor
    - Name: <Name>k__BackingField
      Entry: 1
      Data: _maxLogLevel
    - Name: <UserType>k__BackingField
      Entry: 7
      Data: 22|System.RuntimeType, mscorlib
    - Name: 
      Entry: 1
      Data: ArchiTech.SDK.ATLogLevel, ArchiTech.SDK.Runtime
    - Name: 
      Entry: 8
      Data: 
    - Name: <SystemType>k__BackingField
      Entry: 7
      Data: 23|System.RuntimeType, mscorlib
    - Name: 
      Entry: 1
      Data: System.Int32, mscorlib
    - Name: 
      Entry: 8
      Data: 
    - Name: <SyncMode>k__BackingField
      Entry: 7
      Data: System.Nullable`1[[UdonSharp.UdonSyncMode, UdonSharp.Runtime]], mscorlib
    - Name: 
      Entry: 6
      Data: 
    - Name: 
      Entry: 8
      Data: 
    - Name: <IsSerialized>k__BackingField
      Entry: 5
      Data: true
    - Name: _fieldAttributes
      Entry: 7
      Data: 24|System.Collections.Generic.List`1[[System.Attribute, mscorlib]], mscorlib
    - Name: 
      Entry: 12
      Data: 2
    - Name: 
      Entry: 7
      Data: 25|UnityEngine.SerializeField, UnityEngine.CoreModule
    - Name: 
      Entry: 8
      Data: 
    - Name: 
      Entry: 7
      Data: 26|UnityEngine.TooltipAttribute, UnityEngine.CoreModule
    - Name: tooltip
      Entry: 1
      Data: 'The granularity at which this component will allow logging. Eg: If set
        to INFO, TRACE and DEBUG outputs will be skipped.'
    - Name: 
      Entry: 8
      Data: 
    - Name: 
      Entry: 13
      Data: 
    - Name: 
      Entry: 8
      Data: 
    - Name: 
      Entry: 8
      Data: 
    - Name: 
      Entry: 8
      Data: 
    - Name: 
      Entry: 7
      Data: 
    - Name: $k
      Entry: 1
      Data: _logger
    - Name: $v
      Entry: 7
      Data: 27|UdonSharp.Compiler.FieldDefinition, UdonSharp.Editor
    - Name: <Name>k__BackingField
      Entry: 1
      Data: _logger
    - Name: <UserType>k__BackingField
      Entry: 7
      Data: 28|System.RuntimeType, mscorlib
    - Name: 
      Entry: 1
      Data: Varneon.VUdon.Logger.Abstract.UdonLogger, Varneon.VUdon.Logger.Runtime
    - Name: 
      Entry: 8
      Data: 
    - Name: <SystemType>k__BackingField
      Entry: 7
      Data: 29|System.RuntimeType, mscorlib
    - Name: 
      Entry: 1
      Data: VRC.Udon.UdonBehaviour, VRC.Udon
    - Name: 
      Entry: 8
      Data: 
    - Name: <SyncMode>k__BackingField
      Entry: 7
      Data: System.Nullable`1[[UdonSharp.UdonSyncMode, UdonSharp.Runtime]], mscorlib
    - Name: 
      Entry: 6
      Data: 
    - Name: 
      Entry: 8
      Data: 
    - Name: <IsSerialized>k__BackingField
      Entry: 5
      Data: true
    - Name: _fieldAttributes
      Entry: 7
      Data: 30|System.Collections.Generic.List`1[[System.Attribute, mscorlib]], mscorlib
    - Name: 
      Entry: 12
      Data: 3
    - Name: 
      Entry: 7
      Data: 31|UnityEngine.SerializeField, UnityEngine.CoreModule
    - Name: 
      Entry: 8
      Data: 
    - Name: 
      Entry: 7
      Data: 32|UnityEngine.InspectorNameAttribute, UnityEngine.CoreModule
    - Name: displayName
      Entry: 1
      Data: Custom Logger
    - Name: 
      Entry: 8
      Data: 
    - Name: 
      Entry: 7
      Data: 33|UnityEngine.TooltipAttribute, UnityEngine.CoreModule
    - Name: tooltip
      Entry: 1
      Data: Reference to some implementation of the UdonLogger class from VUdon
    - Name: 
      Entry: 8
      Data: 
    - Name: 
      Entry: 13
      Data: 
    - Name: 
      Entry: 8
      Data: 
    - Name: 
      Entry: 8
      Data: 
    - Name: 
      Entry: 8
      Data: 
    - Name: 
      Entry: 7
      Data: 
    - Name: $k
      Entry: 1
      Data: localPlayer
    - Name: $v
      Entry: 7
      Data: 34|UdonSharp.Compiler.FieldDefinition, UdonSharp.Editor
    - Name: <Name>k__BackingField
      Entry: 1
      Data: localPlayer
    - Name: <UserType>k__BackingField
      Entry: 7
      Data: 35|System.RuntimeType, mscorlib
    - Name: 
      Entry: 1
      Data: VRC.SDKBase.VRCPlayerApi, VRCSDKBase
    - Name: 
      Entry: 8
      Data: 
    - Name: <SystemType>k__BackingField
      Entry: 9
      Data: 35
    - Name: <SyncMode>k__BackingField
      Entry: 7
      Data: System.Nullable`1[[UdonSharp.UdonSyncMode, UdonSharp.Runtime]], mscorlib
    - Name: 
      Entry: 6
      Data: 
    - Name: 
      Entry: 8
      Data: 
    - Name: <IsSerialized>k__BackingField
      Entry: 5
      Data: false
    - Name: _fieldAttributes
      Entry: 7
      Data: 36|System.Collections.Generic.List`1[[System.Attribute, mscorlib]], mscorlib
    - Name: 
      Entry: 12
      Data: 0
    - Name: 
      Entry: 13
      Data: 
    - Name: 
      Entry: 8
      Data: 
    - Name: 
      Entry: 8
      Data: 
    - Name: 
      Entry: 8
      Data: 
    - Name: 
      Entry: 7
      Data: 
    - Name: $k
      Entry: 1
      Data: hasLocalPlayer
    - Name: $v
      Entry: 7
      Data: 37|UdonSharp.Compiler.FieldDefinition, UdonSharp.Editor
    - Name: <Name>k__BackingField
      Entry: 1
      Data: hasLocalPlayer
    - Name: <UserType>k__BackingField
      Entry: 7
      Data: 38|System.RuntimeType, mscorlib
    - Name: 
      Entry: 1
      Data: System.Boolean, mscorlib
    - Name: 
      Entry: 8
      Data: 
    - Name: <SystemType>k__BackingField
      Entry: 9
      Data: 38
    - Name: <SyncMode>k__BackingField
      Entry: 7
      Data: System.Nullable`1[[UdonSharp.UdonSyncMode, UdonSharp.Runtime]], mscorlib
    - Name: 
      Entry: 6
      Data: 
    - Name: 
      Entry: 8
      Data: 
    - Name: <IsSerialized>k__BackingField
      Entry: 5
      Data: false
    - Name: _fieldAttributes
      Entry: 7
      Data: 39|System.Collections.Generic.List`1[[System.Attribute, mscorlib]], mscorlib
    - Name: 
      Entry: 12
      Data: 0
    - Name: 
      Entry: 13
      Data: 
    - Name: 
      Entry: 8
      Data: 
    - Name: 
      Entry: 8
      Data: 
    - Name: 
      Entry: 8
      Data: 
    - Name: 
      Entry: 7
      Data: 
    - Name: $k
      Entry: 1
      Data: hasLogger
    - Name: $v
      Entry: 7
      Data: 40|UdonSharp.Compiler.FieldDefinition, UdonSharp.Editor
    - Name: <Name>k__BackingField
      Entry: 1
      Data: hasLogger
    - Name: <UserType>k__BackingField
      Entry: 9
      Data: 38
    - Name: <SystemType>k__BackingField
      Entry: 9
      Data: 38
    - Name: <SyncMode>k__BackingField
      Entry: 7
      Data: System.Nullable`1[[UdonSharp.UdonSyncMode, UdonSharp.Runtime]], mscorlib
    - Name: 
      Entry: 6
      Data: 
    - Name: 
      Entry: 8
      Data: 
    - Name: <IsSerialized>k__BackingField
      Entry: 5
      Data: false
    - Name: _fieldAttributes
      Entry: 7
      Data: 41|System.Collections.Generic.List`1[[System.Attribute, mscorlib]], mscorlib
    - Name: 
      Entry: 12
      Data: 0
    - Name: 
      Entry: 13
      Data: 
    - Name: 
      Entry: 8
      Data: 
    - Name: 
      Entry: 8
      Data: 
    - Name: 
      Entry: 8
      Data: 
    - Name: 
      Entry: 7
      Data: 
    - Name: $k
      Entry: 1
      Data: isQuest
    - Name: $v
      Entry: 7
      Data: 42|UdonSharp.Compiler.FieldDefinition, UdonSharp.Editor
    - Name: <Name>k__BackingField
      Entry: 1
      Data: isQuest
    - Name: <UserType>k__BackingField
      Entry: 9
      Data: 38
    - Name: <SystemType>k__BackingField
      Entry: 9
      Data: 38
    - Name: <SyncMode>k__BackingField
      Entry: 7
      Data: System.Nullable`1[[UdonSharp.UdonSyncMode, UdonSharp.Runtime]], mscorlib
    - Name: 
      Entry: 6
      Data: 
    - Name: 
      Entry: 8
      Data: 
    - Name: <IsSerialized>k__BackingField
      Entry: 5
      Data: false
    - Name: _fieldAttributes
      Entry: 7
      Data: 43|System.Collections.Generic.List`1[[System.Attribute, mscorlib]], mscorlib
    - Name: 
      Entry: 12
      Data: 0
    - Name: 
      Entry: 13
      Data: 
    - Name: 
      Entry: 8
      Data: 
    - Name: 
      Entry: 8
      Data: 
    - Name: 
      Entry: 8
      Data: 
    - Name: 
      Entry: 7
      Data: 
    - Name: $k
      Entry: 1
      Data: isInVR
    - Name: $v
      Entry: 7
      Data: 44|UdonSharp.Compiler.FieldDefinition, UdonSharp.Editor
    - Name: <Name>k__BackingField
      Entry: 1
      Data: isInVR
    - Name: <UserType>k__BackingField
      Entry: 9
      Data: 38
    - Name: <SystemType>k__BackingField
      Entry: 9
      Data: 38
    - Name: <SyncMode>k__BackingField
      Entry: 7
      Data: System.Nullable`1[[UdonSharp.UdonSyncMode, UdonSharp.Runtime]], mscorlib
    - Name: 
      Entry: 6
      Data: 
    - Name: 
      Entry: 8
      Data: 
    - Name: <IsSerialized>k__BackingField
      Entry: 5
      Data: false
    - Name: _fieldAttributes
      Entry: 7
      Data: 45|System.Collections.Generic.List`1[[System.Attribute, mscorlib]], mscorlib
    - Name: 
      Entry: 12
      Data: 0
    - Name: 
      Entry: 13
      Data: 
    - Name: 
      Entry: 8
      Data: 
    - Name: 
      Entry: 8
      Data: 
    - Name: 
      Entry: 8
      Data: 
    - Name: 
      Entry: 7
      Data: 
    - Name: $k
      Entry: 1
      Data: init
    - Name: $v
      Entry: 7
      Data: 46|UdonSharp.Compiler.FieldDefinition, UdonSharp.Editor
    - Name: <Name>k__BackingField
      Entry: 1
      Data: init
    - Name: <UserType>k__BackingField
      Entry: 9
      Data: 38
    - Name: <SystemType>k__BackingField
      Entry: 9
      Data: 38
    - Name: <SyncMode>k__BackingField
      Entry: 7
      Data: System.Nullable`1[[UdonSharp.UdonSyncMode, UdonSharp.Runtime]], mscorlib
    - Name: 
      Entry: 6
      Data: 
    - Name: 
      Entry: 8
      Data: 
    - Name: <IsSerialized>k__BackingField
      Entry: 5
      Data: false
    - Name: _fieldAttributes
      Entry: 7
      Data: 47|System.Collections.Generic.List`1[[System.Attribute, mscorlib]], mscorlib
    - Name: 
      Entry: 12
      Data: 0
    - Name: 
      Entry: 13
      Data: 
    - Name: 
      Entry: 8
      Data: 
    - Name: 
      Entry: 8
      Data: 
    - Name: 
      Entry: 8
      Data: 
    - Name: 
      Entry: 7
      Data: 
    - Name: $k
      Entry: 1
      Data: IsTraceEnabled
    - Name: $v
      Entry: 7
      Data: 48|UdonSharp.Compiler.FieldDefinition, UdonSharp.Editor
    - Name: <Name>k__BackingField
      Entry: 1
      Data: IsTraceEnabled
    - Name: <UserType>k__BackingField
      Entry: 9
      Data: 38
    - Name: <SystemType>k__BackingField
      Entry: 9
      Data: 38
    - Name: <SyncMode>k__BackingField
      Entry: 7
      Data: System.Nullable`1[[UdonSharp.UdonSyncMode, UdonSharp.Runtime]], mscorlib
    - Name: 
      Entry: 6
      Data: 
    - Name: 
      Entry: 8
      Data: 
    - Name: <IsSerialized>k__BackingField
      Entry: 5
      Data: false
    - Name: _fieldAttributes
      Entry: 7
      Data: 49|System.Collections.Generic.List`1[[System.Attribute, mscorlib]], mscorlib
    - Name: 
      Entry: 12
      Data: 0
    - Name: 
      Entry: 13
      Data: 
    - Name: 
      Entry: 8
      Data: 
    - Name: 
      Entry: 8
      Data: 
    - Name: 
      Entry: 8
      Data: 
    - Name: 
      Entry: 7
      Data: 
    - Name: $k
      Entry: 1
      Data: IsDebugEnabled
    - Name: $v
      Entry: 7
      Data: 50|UdonSharp.Compiler.FieldDefinition, UdonSharp.Editor
    - Name: <Name>k__BackingField
      Entry: 1
      Data: IsDebugEnabled
    - Name: <UserType>k__BackingField
      Entry: 9
      Data: 38
    - Name: <SystemType>k__BackingField
      Entry: 9
      Data: 38
    - Name: <SyncMode>k__BackingField
      Entry: 7
      Data: System.Nullable`1[[UdonSharp.UdonSyncMode, UdonSharp.Runtime]], mscorlib
    - Name: 
      Entry: 6
      Data: 
    - Name: 
      Entry: 8
      Data: 
    - Name: <IsSerialized>k__BackingField
      Entry: 5
      Data: false
    - Name: _fieldAttributes
      Entry: 7
      Data: 51|System.Collections.Generic.List`1[[System.Attribute, mscorlib]], mscorlib
    - Name: 
      Entry: 12
      Data: 0
    - Name: 
      Entry: 13
      Data: 
    - Name: 
      Entry: 8
      Data: 
    - Name: 
      Entry: 8
      Data: 
    - Name: 
      Entry: 8
      Data: 
    - Name: 
      Entry: 7
      Data: 
    - Name: $k
      Entry: 1
      Data: IsInfoEnabled
    - Name: $v
      Entry: 7
      Data: 52|UdonSharp.Compiler.FieldDefinition, UdonSharp.Editor
    - Name: <Name>k__BackingField
      Entry: 1
      Data: IsInfoEnabled
    - Name: <UserType>k__BackingField
      Entry: 9
      Data: 38
    - Name: <SystemType>k__BackingField
      Entry: 9
      Data: 38
    - Name: <SyncMode>k__BackingField
      Entry: 7
      Data: System.Nullable`1[[UdonSharp.UdonSyncMode, UdonSharp.Runtime]], mscorlib
    - Name: 
      Entry: 6
      Data: 
    - Name: 
      Entry: 8
      Data: 
    - Name: <IsSerialized>k__BackingField
      Entry: 5
      Data: false
    - Name: _fieldAttributes
      Entry: 7
      Data: 53|System.Collections.Generic.List`1[[System.Attribute, mscorlib]], mscorlib
    - Name: 
      Entry: 12
      Data: 0
    - Name: 
      Entry: 13
      Data: 
    - Name: 
      Entry: 8
      Data: 
    - Name: 
      Entry: 8
      Data: 
    - Name: 
      Entry: 8
      Data: 
    - Name: 
      Entry: 7
      Data: 
    - Name: $k
      Entry: 1
      Data: IsWarnEnabled
    - Name: $v
      Entry: 7
      Data: 54|UdonSharp.Compiler.FieldDefinition, UdonSharp.Editor
    - Name: <Name>k__BackingField
      Entry: 1
      Data: IsWarnEnabled
    - Name: <UserType>k__BackingField
      Entry: 9
      Data: 38
    - Name: <SystemType>k__BackingField
      Entry: 9
      Data: 38
    - Name: <SyncMode>k__BackingField
      Entry: 7
      Data: System.Nullable`1[[UdonSharp.UdonSyncMode, UdonSharp.Runtime]], mscorlib
    - Name: 
      Entry: 6
      Data: 
    - Name: 
      Entry: 8
      Data: 
    - Name: <IsSerialized>k__BackingField
      Entry: 5
      Data: false
    - Name: _fieldAttributes
      Entry: 7
      Data: 55|System.Collections.Generic.List`1[[System.Attribute, mscorlib]], mscorlib
    - Name: 
      Entry: 12
      Data: 0
    - Name: 
      Entry: 13
      Data: 
    - Name: 
      Entry: 8
      Data: 
    - Name: 
      Entry: 8
      Data: 
    - Name: 
      Entry: 8
      Data: 
    - Name: 
      Entry: 7
      Data: 
    - Name: $k
      Entry: 1
      Data: IsErrorEnabled
    - Name: $v
      Entry: 7
      Data: 56|UdonSharp.Compiler.FieldDefinition, UdonSharp.Editor
    - Name: <Name>k__BackingField
      Entry: 1
      Data: IsErrorEnabled
    - Name: <UserType>k__BackingField
      Entry: 9
      Data: 38
    - Name: <SystemType>k__BackingField
      Entry: 9
      Data: 38
    - Name: <SyncMode>k__BackingField
      Entry: 7
      Data: System.Nullable`1[[UdonSharp.UdonSyncMode, UdonSharp.Runtime]], mscorlib
    - Name: 
      Entry: 6
      Data: 
    - Name: 
      Entry: 8
      Data: 
    - Name: <IsSerialized>k__BackingField
      Entry: 5
      Data: false
    - Name: _fieldAttributes
      Entry: 7
      Data: 57|System.Collections.Generic.List`1[[System.Attribute, mscorlib]], mscorlib
    - Name: 
      Entry: 12
      Data: 0
    - Name: 
      Entry: 13
      Data: 
    - Name: 
      Entry: 8
      Data: 
    - Name: 
      Entry: 8
      Data: 
    - Name: 
      Entry: 8
      Data: 
    - Name: 
      Entry: 7
      Data: 
    - Name: $k
      Entry: 1
      Data: logLevelPrefix
    - Name: $v
      Entry: 7
      Data: 58|UdonSharp.Compiler.FieldDefinition, UdonSharp.Editor
    - Name: <Name>k__BackingField
      Entry: 1
      Data: logLevelPrefix
    - Name: <UserType>k__BackingField
      Entry: 7
      Data: 59|System.RuntimeType, mscorlib
    - Name: 
      Entry: 1
      Data: System.String[], mscorlib
    - Name: 
      Entry: 8
      Data: 
    - Name: <SystemType>k__BackingField
      Entry: 9
      Data: 59
    - Name: <SyncMode>k__BackingField
      Entry: 7
      Data: System.Nullable`1[[UdonSharp.UdonSyncMode, UdonSharp.Runtime]], mscorlib
    - Name: 
      Entry: 6
      Data: 
    - Name: 
      Entry: 8
      Data: 
    - Name: <IsSerialized>k__BackingField
      Entry: 5
      Data: false
    - Name: _fieldAttributes
      Entry: 7
      Data: 60|System.Collections.Generic.List`1[[System.Attribute, mscorlib]], mscorlib
    - Name: 
      Entry: 12
      Data: 0
    - Name: 
      Entry: 13
      Data: 
    - Name: 
      Entry: 8
      Data: 
    - Name: 
      Entry: 8
      Data: 
    - Name: 
      Entry: 8
      Data: 
    - Name: 
      Entry: 7
      Data: 
    - Name: $k
      Entry: 1
      Data: _formatArgs
    - Name: $v
      Entry: 7
      Data: 61|UdonSharp.Compiler.FieldDefinition, UdonSharp.Editor
    - Name: <Name>k__BackingField
      Entry: 1
      Data: _formatArgs
    - Name: <UserType>k__BackingField
      Entry: 9
      Data: 59
    - Name: <SystemType>k__BackingField
      Entry: 9
      Data: 59
    - Name: <SyncMode>k__BackingField
      Entry: 7
      Data: System.Nullable`1[[UdonSharp.UdonSyncMode, UdonSharp.Runtime]], mscorlib
    - Name: 
      Entry: 6
      Data: 
    - Name: 
      Entry: 8
      Data: 
    - Name: <IsSerialized>k__BackingField
      Entry: 5
      Data: false
    - Name: _fieldAttributes
      Entry: 7
      Data: 62|System.Collections.Generic.List`1[[System.Attribute, mscorlib]], mscorlib
    - Name: 
      Entry: 12
      Data: 0
    - Name: 
      Entry: 13
      Data: 
    - Name: 
      Entry: 8
      Data: 
    - Name: 
      Entry: 8
      Data: 
    - Name: 
      Entry: 8
      Data: 
    - Name: 
      Entry: 7
      Data: 
    - Name: $k
      Entry: 1
      Data: logInit
    - Name: $v
      Entry: 7
      Data: 63|UdonSharp.Compiler.FieldDefinition, UdonSharp.Editor
    - Name: <Name>k__BackingField
      Entry: 1
      Data: logInit
    - Name: <UserType>k__BackingField
      Entry: 9
      Data: 38
    - Name: <SystemType>k__BackingField
      Entry: 9
      Data: 38
    - Name: <SyncMode>k__BackingField
      Entry: 7
      Data: System.Nullable`1[[UdonSharp.UdonSyncMode, UdonSharp.Runtime]], mscorlib
    - Name: 
      Entry: 6
      Data: 
    - Name: 
      Entry: 8
      Data: 
    - Name: <IsSerialized>k__BackingField
      Entry: 5
      Data: false
    - Name: _fieldAttributes
      Entry: 7
      Data: 64|System.Collections.Generic.List`1[[System.Attribute, mscorlib]], mscorlib
    - Name: 
      Entry: 12
      Data: 0
    - Name: 
      Entry: 13
      Data: 
    - Name: 
      Entry: 8
      Data: 
    - Name: 
      Entry: 8
      Data: 
    - Name: 
      Entry: 8
      Data: 
    - Name: 
      Entry: 7
      Data: 
    - Name: $k
      Entry: 1
      Data: usbtype
    - Name: $v
      Entry: 7
      Data: 65|UdonSharp.Compiler.FieldDefinition, UdonSharp.Editor
    - Name: <Name>k__BackingField
      Entry: 1
      Data: usbtype
    - Name: <UserType>k__BackingField
      Entry: 7
      Data: 66|System.RuntimeType, mscorlib
    - Name: 
      Entry: 1
      Data: System.Type, mscorlib
    - Name: 
      Entry: 8
      Data: 
    - Name: <SystemType>k__BackingField
      Entry: 9
      Data: 66
    - Name: <SyncMode>k__BackingField
      Entry: 7
      Data: System.Nullable`1[[UdonSharp.UdonSyncMode, UdonSharp.Runtime]], mscorlib
    - Name: 
      Entry: 6
      Data: 
    - Name: 
      Entry: 8
      Data: 
    - Name: <IsSerialized>k__BackingField
      Entry: 5
      Data: false
    - Name: _fieldAttributes
      Entry: 7
      Data: 67|System.Collections.Generic.List`1[[System.Attribute, mscorlib]], mscorlib
    - Name: 
      Entry: 12
      Data: 0
    - Name: 
      Entry: 13
      Data: 
    - Name: 
      Entry: 8
      Data: 
    - Name: 
      Entry: 8
      Data: 
    - Name: 
      Entry: 8
      Data: 
    - Name: 
      Entry: 7
      Data: 
    - Name: $k
      Entry: 1
      Data: LogLevelOverride
    - Name: $v
      Entry: 7
      Data: 68|UdonSharp.Compiler.FieldDefinition, UdonSharp.Editor
    - Name: <Name>k__BackingField
      Entry: 1
      Data: LogLevelOverride
    - Name: <UserType>k__BackingField
      Entry: 9
      Data: 38
    - Name: <SystemType>k__BackingField
      Entry: 9
      Data: 38
    - Name: <SyncMode>k__BackingField
      Entry: 7
      Data: System.Nullable`1[[UdonSharp.UdonSyncMode, UdonSharp.Runtime]], mscorlib
    - Name: 
      Entry: 6
      Data: 
    - Name: 
      Entry: 8
      Data: 
    - Name: <IsSerialized>k__BackingField
      Entry: 5
      Data: true
    - Name: _fieldAttributes
      Entry: 7
      Data: 69|System.Collections.Generic.List`1[[System.Attribute, mscorlib]], mscorlib
    - Name: 
      Entry: 12
      Data: 2
    - Name: 
      Entry: 7
      Data: 70|UnityEngine.InspectorNameAttribute, UnityEngine.CoreModule
    - Name: displayName
      Entry: 1
      Data: Override Subscriber Logging
    - Name: 
      Entry: 8
      Data: 
    - Name: 
      Entry: 7
      Data: 71|UnityEngine.TooltipAttribute, UnityEngine.CoreModule
    - Name: tooltip
      Entry: 1
      Data: Should the max log level of this event manager override the max log level
        of all registered listeners?
    - Name: 
      Entry: 8
      Data: 
    - Name: 
      Entry: 13
      Data: 
    - Name: 
      Entry: 8
      Data: 
    - Name: 
      Entry: 8
      Data: 
    - Name: 
      Entry: 8
      Data: 
    - Name: 
      Entry: 7
      Data: 
    - Name: $k
      Entry: 1
      Data: _eventManager
    - Name: $v
      Entry: 7
      Data: 72|UdonSharp.Compiler.FieldDefinition, UdonSharp.Editor
    - Name: <Name>k__BackingField
      Entry: 1
      Data: _eventManager
    - Name: <UserType>k__BackingField
      Entry: 7
      Data: 73|System.RuntimeType, mscorlib
    - Name: 
      Entry: 1
      Data: ArchiTech.SDK.ATEventHandler, ArchiTech.SDK.Runtime
    - Name: 
      Entry: 8
      Data: 
    - Name: <SystemType>k__BackingField
      Entry: 9
      Data: 29
    - Name: <SyncMode>k__BackingField
      Entry: 7
      Data: System.Nullable`1[[UdonSharp.UdonSyncMode, UdonSharp.Runtime]], mscorlib
    - Name: 
      Entry: 6
      Data: 
    - Name: 
      Entry: 8
      Data: 
    - Name: <IsSerialized>k__BackingField
      Entry: 5
      Data: false
    - Name: _fieldAttributes
      Entry: 7
      Data: 74|System.Collections.Generic.List`1[[System.Attribute, mscorlib]], mscorlib
    - Name: 
      Entry: 12
      Data: 0
    - Name: 
      Entry: 13
      Data: 
    - Name: 
      Entry: 8
      Data: 
    - Name: 
      Entry: 8
      Data: 
    - Name: 
      Entry: 8
      Data: 
    - Name: 
      Entry: 7
      Data: 
    - Name: $k
      Entry: 1
      Data: IN_LISTENER
    - Name: $v
      Entry: 7
      Data: 75|UdonSharp.Compiler.FieldDefinition, UdonSharp.Editor
    - Name: <Name>k__BackingField
      Entry: 1
      Data: IN_LISTENER
    - Name: <UserType>k__BackingField
      Entry: 7
      Data: 76|System.RuntimeType, mscorlib
    - Name: 
      Entry: 1
      Data: UdonSharp.UdonSharpBehaviour, UdonSharp.Runtime
    - Name: 
      Entry: 8
      Data: 
    - Name: <SystemType>k__BackingField
      Entry: 9
      Data: 29
    - Name: <SyncMode>k__BackingField
      Entry: 7
      Data: System.Nullable`1[[UdonSharp.UdonSyncMode, UdonSharp.Runtime]], mscorlib
    - Name: 
      Entry: 6
      Data: 
    - Name: 
      Entry: 8
      Data: 
    - Name: <IsSerialized>k__BackingField
      Entry: 5
      Data: false
    - Name: _fieldAttributes
      Entry: 7
      Data: 77|System.Collections.Generic.List`1[[System.Attribute, mscorlib]], mscorlib
    - Name: 
      Entry: 12
      Data: 1
    - Name: 
      Entry: 7
      Data: 78|System.NonSerializedAttribute, mscorlib
    - Name: 
      Entry: 8
      Data: 
    - Name: 
      Entry: 13
      Data: 
    - Name: 
      Entry: 8
      Data: 
    - Name: 
      Entry: 8
      Data: 
    - Name: 
      Entry: 8
      Data: 
    - Name: 
      Entry: 7
      Data: 
    - Name: $k
      Entry: 1
      Data: IN_PRIORITY
    - Name: $v
      Entry: 7
      Data: 79|UdonSharp.Compiler.FieldDefinition, UdonSharp.Editor
    - Name: <Name>k__BackingField
      Entry: 1
      Data: IN_PRIORITY
    - Name: <UserType>k__BackingField
      Entry: 7
      Data: 80|System.RuntimeType, mscorlib
    - Name: 
      Entry: 1
      Data: System.SByte, mscorlib
    - Name: 
      Entry: 8
      Data: 
    - Name: <SystemType>k__BackingField
      Entry: 9
      Data: 80
    - Name: <SyncMode>k__BackingField
      Entry: 7
      Data: System.Nullable`1[[UdonSharp.UdonSyncMode, UdonSharp.Runtime]], mscorlib
    - Name: 
      Entry: 6
      Data: 
    - Name: 
      Entry: 8
      Data: 
    - Name: <IsSerialized>k__BackingField
      Entry: 5
      Data: false
    - Name: _fieldAttributes
      Entry: 7
      Data: 81|System.Collections.Generic.List`1[[System.Attribute, mscorlib]], mscorlib
    - Name: 
      Entry: 12
      Data: 1
    - Name: 
      Entry: 7
      Data: 82|System.NonSerializedAttribute, mscorlib
    - Name: 
      Entry: 8
      Data: 
    - Name: 
      Entry: 13
      Data: 
    - Name: 
      Entry: 8
      Data: 
    - Name: 
      Entry: 8
      Data: 
    - Name: 
      Entry: 8
      Data: 
    - Name: 
      Entry: 7
      Data: 
    - Name: $k
      Entry: 1
      Data: _eventListeners
    - Name: $v
      Entry: 7
      Data: 83|UdonSharp.Compiler.FieldDefinition, UdonSharp.Editor
    - Name: <Name>k__BackingField
      Entry: 1
      Data: _eventListeners
    - Name: <UserType>k__BackingField
      Entry: 7
      Data: 84|System.RuntimeType, mscorlib
    - Name: 
      Entry: 1
      Data: UdonSharp.UdonSharpBehaviour[], UdonSharp.Runtime
    - Name: 
      Entry: 8
      Data: 
    - Name: <SystemType>k__BackingField
      Entry: 7
      Data: 85|System.RuntimeType, mscorlib
    - Name: 
      Entry: 1
      Data: UnityEngine.Component[], UnityEngine.CoreModule
    - Name: 
      Entry: 8
      Data: 
    - Name: <SyncMode>k__BackingField
      Entry: 7
      Data: System.Nullable`1[[UdonSharp.UdonSyncMode, UdonSharp.Runtime]], mscorlib
    - Name: 
      Entry: 6
      Data: 
    - Name: 
      Entry: 8
      Data: 
    - Name: <IsSerialized>k__BackingField
      Entry: 5
      Data: false
    - Name: _fieldAttributes
      Entry: 7
      Data: 86|System.Collections.Generic.List`1[[System.Attribute, mscorlib]], mscorlib
    - Name: 
      Entry: 12
      Data: 0
    - Name: 
      Entry: 13
      Data: 
    - Name: 
      Entry: 8
      Data: 
    - Name: 
      Entry: 8
      Data: 
    - Name: 
      Entry: 8
      Data: 
    - Name: 
      Entry: 7
      Data: 
    - Name: $k
      Entry: 1
      Data: _skipListeners
    - Name: $v
      Entry: 7
      Data: 87|UdonSharp.Compiler.FieldDefinition, UdonSharp.Editor
    - Name: <Name>k__BackingField
      Entry: 1
      Data: _skipListeners
    - Name: <UserType>k__BackingField
      Entry: 9
      Data: 84
    - Name: <SystemType>k__BackingField
      Entry: 9
      Data: 85
    - Name: <SyncMode>k__BackingField
      Entry: 7
      Data: System.Nullable`1[[UdonSharp.UdonSyncMode, UdonSharp.Runtime]], mscorlib
    - Name: 
      Entry: 6
      Data: 
    - Name: 
      Entry: 8
      Data: 
    - Name: <IsSerialized>k__BackingField
      Entry: 5
      Data: false
    - Name: _fieldAttributes
      Entry: 7
      Data: 88|System.Collections.Generic.List`1[[System.Attribute, mscorlib]], mscorlib
    - Name: 
      Entry: 12
      Data: 0
    - Name: 
      Entry: 13
      Data: 
    - Name: 
      Entry: 8
      Data: 
    - Name: 
      Entry: 8
      Data: 
    - Name: 
      Entry: 8
      Data: 
    - Name: 
      Entry: 7
      Data: 
    - Name: $k
      Entry: 1
      Data: _eventListenerWeights
    - Name: $v
      Entry: 7
      Data: 89|UdonSharp.Compiler.FieldDefinition, UdonSharp.Editor
    - Name: <Name>k__BackingField
      Entry: 1
      Data: _eventListenerWeights
    - Name: <UserType>k__BackingField
      Entry: 7
      Data: 90|System.RuntimeType, mscorlib
    - Name: 
      Entry: 1
      Data: System.SByte[], mscorlib
    - Name: 
      Entry: 8
      Data: 
    - Name: <SystemType>k__BackingField
      Entry: 9
      Data: 90
    - Name: <SyncMode>k__BackingField
      Entry: 7
      Data: System.Nullable`1[[UdonSharp.UdonSyncMode, UdonSharp.Runtime]], mscorlib
    - Name: 
      Entry: 6
      Data: 
    - Name: 
      Entry: 8
      Data: 
    - Name: <IsSerialized>k__BackingField
      Entry: 5
      Data: false
    - Name: _fieldAttributes
      Entry: 7
      Data: 91|System.Collections.Generic.List`1[[System.Attribute, mscorlib]], mscorlib
    - Name: 
      Entry: 12
      Data: 0
    - Name: 
      Entry: 13
      Data: 
    - Name: 
      Entry: 8
      Data: 
    - Name: 
      Entry: 8
      Data: 
    - Name: 
      Entry: 8
      Data: 
    - Name: 
      Entry: 7
      Data: 
    - Name: $k
      Entry: 1
      Data: _sendEvents
    - Name: $v
      Entry: 7
      Data: 92|UdonSharp.Compiler.FieldDefinition, UdonSharp.Editor
    - Name: <Name>k__BackingField
      Entry: 1
      Data: _sendEvents
    - Name: <UserType>k__BackingField
      Entry: 9
      Data: 38
    - Name: <SystemType>k__BackingField
      Entry: 9
      Data: 38
    - Name: <SyncMode>k__BackingField
      Entry: 7
      Data: System.Nullable`1[[UdonSharp.UdonSyncMode, UdonSharp.Runtime]], mscorlib
    - Name: 
      Entry: 6
      Data: 
    - Name: 
      Entry: 8
      Data: 
    - Name: <IsSerialized>k__BackingField
      Entry: 5
      Data: false
    - Name: _fieldAttributes
      Entry: 7
      Data: 93|System.Collections.Generic.List`1[[System.Attribute, mscorlib]], mscorlib
    - Name: 
      Entry: 12
      Data: 0
    - Name: 
      Entry: 13
      Data: 
    - Name: 
      Entry: 8
      Data: 
    - Name: 
      Entry: 8
      Data: 
    - Name: 
      Entry: 8
      Data: 
    - Name: 
      Entry: 7
      Data: 
    - Name: $k
      Entry: 1
      Data: _managerInit
    - Name: $v
      Entry: 7
      Data: 94|UdonSharp.Compiler.FieldDefinition, UdonSharp.Editor
    - Name: <Name>k__BackingField
      Entry: 1
      Data: _managerInit
    - Name: <UserType>k__BackingField
      Entry: 9
      Data: 38
    - Name: <SystemType>k__BackingField
      Entry: 9
      Data: 38
    - Name: <SyncMode>k__BackingField
      Entry: 7
      Data: System.Nullable`1[[UdonSharp.UdonSyncMode, UdonSharp.Runtime]], mscorlib
    - Name: 
      Entry: 6
      Data: 
    - Name: 
      Entry: 8
      Data: 
    - Name: <IsSerialized>k__BackingField
      Entry: 5
      Data: false
    - Name: _fieldAttributes
      Entry: 7
      Data: 95|System.Collections.Generic.List`1[[System.Attribute, mscorlib]], mscorlib
    - Name: 
      Entry: 12
      Data: 0
    - Name: 
      Entry: 13
      Data: 
    - Name: 
      Entry: 8
      Data: 
    - Name: 
      Entry: 8
      Data: 
    - Name: 
      Entry: 8
      Data: 
    - Name: 
      Entry: 7
      Data: 
    - Name: $k
      Entry: 1
      Data: runningEvents
    - Name: $v
      Entry: 7
      Data: 96|UdonSharp.Compiler.FieldDefinition, UdonSharp.Editor
    - Name: <Name>k__BackingField
      Entry: 1
      Data: runningEvents
    - Name: <UserType>k__BackingField
      Entry: 9
      Data: 38
    - Name: <SystemType>k__BackingField
      Entry: 9
      Data: 38
    - Name: <SyncMode>k__BackingField
      Entry: 7
      Data: System.Nullable`1[[UdonSharp.UdonSyncMode, UdonSharp.Runtime]], mscorlib
    - Name: 
      Entry: 6
      Data: 
    - Name: 
      Entry: 8
      Data: 
    - Name: <IsSerialized>k__BackingField
      Entry: 5
      Data: false
    - Name: _fieldAttributes
      Entry: 7
      Data: 97|System.Collections.Generic.List`1[[System.Attribute, mscorlib]], mscorlib
    - Name: 
      Entry: 12
      Data: 0
    - Name: 
      Entry: 13
      Data: 
    - Name: 
      Entry: 8
      Data: 
    - Name: 
      Entry: 8
      Data: 
    - Name: 
      Entry: 8
      Data: 
    - Name: 
      Entry: 7
      Data: 
    - Name: $k
      Entry: 1
      Data: currentEvent
    - Name: $v
      Entry: 7
      Data: 98|UdonSharp.Compiler.FieldDefinition, UdonSharp.Editor
    - Name: <Name>k__BackingField
      Entry: 1
      Data: currentEvent
    - Name: <UserType>k__BackingField
      Entry: 7
      Data: 99|System.RuntimeType, mscorlib
    - Name: 
      Entry: 1
      Data: System.String, mscorlib
    - Name: 
      Entry: 8
      Data: 
    - Name: <SystemType>k__BackingField
      Entry: 9
      Data: 99
    - Name: <SyncMode>k__BackingField
      Entry: 7
      Data: System.Nullable`1[[UdonSharp.UdonSyncMode, UdonSharp.Runtime]], mscorlib
    - Name: 
      Entry: 6
      Data: 
    - Name: 
      Entry: 8
      Data: 
    - Name: <IsSerialized>k__BackingField
      Entry: 5
      Data: false
    - Name: _fieldAttributes
      Entry: 7
      Data: 100|System.Collections.Generic.List`1[[System.Attribute, mscorlib]],
        mscorlib
    - Name: 
      Entry: 12
      Data: 0
    - Name: 
      Entry: 13
      Data: 
    - Name: 
      Entry: 8
      Data: 
    - Name: 
      Entry: 8
      Data: 
    - Name: 
      Entry: 8
      Data: 
    - Name: 
      Entry: 7
      Data: 
    - Name: $k
      Entry: 1
      Data: tv
    - Name: $v
      Entry: 7
      Data: 101|UdonSharp.Compiler.FieldDefinition, UdonSharp.Editor
    - Name: <Name>k__BackingField
      Entry: 1
      Data: tv
    - Name: <UserType>k__BackingField
      Entry: 7
      Data: 102|System.RuntimeType, mscorlib
    - Name: 
      Entry: 1
      Data: ArchiTech.ProTV.TVManager, ArchiTech.ProTV.Runtime
    - Name: 
      Entry: 8
      Data: 
    - Name: <SystemType>k__BackingField
      Entry: 9
      Data: 29
    - Name: <SyncMode>k__BackingField
      Entry: 7
      Data: System.Nullable`1[[UdonSharp.UdonSyncMode, UdonSharp.Runtime]], mscorlib
    - Name: 
      Entry: 6
      Data: 
    - Name: 
      Entry: 8
      Data: 
    - Name: <IsSerialized>k__BackingField
      Entry: 5
      Data: true
    - Name: _fieldAttributes
      Entry: 7
      Data: 103|System.Collections.Generic.List`1[[System.Attribute, mscorlib]],
        mscorlib
    - Name: 
      Entry: 12
      Data: 1
    - Name: 
      Entry: 7
      Data: 104|UnityEngine.SerializeField, UnityEngine.CoreModule
    - Name: 
      Entry: 8
      Data: 
    - Name: 
      Entry: 13
      Data: 
    - Name: 
      Entry: 8
      Data: 
    - Name: 
      Entry: 8
      Data: 
    - Name: 
      Entry: 8
      Data: 
    - Name: 
      Entry: 7
      Data: 
    - Name: $k
      Entry: 1
      Data: hasTV
    - Name: $v
      Entry: 7
      Data: 105|UdonSharp.Compiler.FieldDefinition, UdonSharp.Editor
    - Name: <Name>k__BackingField
      Entry: 1
      Data: hasTV
    - Name: <UserType>k__BackingField
      Entry: 9
      Data: 38
    - Name: <SystemType>k__BackingField
      Entry: 9
      Data: 38
    - Name: <SyncMode>k__BackingField
      Entry: 7
      Data: System.Nullable`1[[UdonSharp.UdonSyncMode, UdonSharp.Runtime]], mscorlib
    - Name: 
      Entry: 6
      Data: 
    - Name: 
      Entry: 8
      Data: 
    - Name: <IsSerialized>k__BackingField
      Entry: 5
      Data: false
    - Name: _fieldAttributes
      Entry: 7
      Data: 106|System.Collections.Generic.List`1[[System.Attribute, mscorlib]],
        mscorlib
    - Name: 
      Entry: 12
      Data: 0
    - Name: 
      Entry: 13
      Data: 
    - Name: 
      Entry: 8
      Data: 
    - Name: 
      Entry: 8
      Data: 
    - Name: 
      Entry: 8
      Data: 
    - Name: 
      Entry: 7
      Data: 
    - Name: $k
      Entry: 1
      Data: IN_INDEX
    - Name: $v
      Entry: 7
      Data: 107|UdonSharp.Compiler.FieldDefinition, UdonSharp.Editor
    - Name: <Name>k__BackingField
      Entry: 1
      Data: IN_INDEX
    - Name: <UserType>k__BackingField
      Entry: 9
      Data: 23
    - Name: <SystemType>k__BackingField
      Entry: 9
      Data: 23
    - Name: <SyncMode>k__BackingField
      Entry: 7
      Data: System.Nullable`1[[UdonSharp.UdonSyncMode, UdonSharp.Runtime]], mscorlib
    - Name: 
      Entry: 6
      Data: 
    - Name: 
      Entry: 8
      Data: 
    - Name: <IsSerialized>k__BackingField
      Entry: 5
      Data: false
    - Name: _fieldAttributes
      Entry: 7
      Data: 108|System.Collections.Generic.List`1[[System.Attribute, mscorlib]],
        mscorlib
    - Name: 
      Entry: 12
      Data: 1
    - Name: 
      Entry: 7
      Data: 109|System.NonSerializedAttribute, mscorlib
    - Name: 
      Entry: 8
      Data: 
    - Name: 
      Entry: 13
      Data: 
    - Name: 
      Entry: 8
      Data: 
    - Name: 
      Entry: 8
      Data: 
    - Name: 
      Entry: 8
      Data: 
    - Name: 
      Entry: 7
      Data: 
    - Name: $k
      Entry: 1
      Data: IN_NAME
    - Name: $v
      Entry: 7
      Data: 110|UdonSharp.Compiler.FieldDefinition, UdonSharp.Editor
    - Name: <Name>k__BackingField
      Entry: 1
      Data: IN_NAME
    - Name: <UserType>k__BackingField
      Entry: 9
      Data: 99
    - Name: <SystemType>k__BackingField
      Entry: 9
      Data: 99
    - Name: <SyncMode>k__BackingField
      Entry: 7
      Data: System.Nullable`1[[UdonSharp.UdonSyncMode, UdonSharp.Runtime]], mscorlib
    - Name: 
      Entry: 6
      Data: 
    - Name: 
      Entry: 8
      Data: 
    - Name: <IsSerialized>k__BackingField
      Entry: 5
      Data: false
    - Name: _fieldAttributes
      Entry: 7
      Data: 111|System.Collections.Generic.List`1[[System.Attribute, mscorlib]],
        mscorlib
    - Name: 
      Entry: 12
      Data: 1
    - Name: 
      Entry: 7
      Data: 112|System.NonSerializedAttribute, mscorlib
    - Name: 
      Entry: 8
      Data: 
    - Name: 
      Entry: 13
      Data: 
    - Name: 
      Entry: 8
      Data: 
    - Name: 
      Entry: 8
      Data: 
    - Name: 
      Entry: 8
      Data: 
    - Name: 
      Entry: 7
      Data: 
    - Name: $k
      Entry: 1
      Data: IN_STATE
    - Name: $v
      Entry: 7
      Data: 113|UdonSharp.Compiler.FieldDefinition, UdonSharp.Editor
    - Name: <Name>k__BackingField
      Entry: 1
      Data: IN_STATE
    - Name: <UserType>k__BackingField
      Entry: 9
      Data: 38
    - Name: <SystemType>k__BackingField
      Entry: 9
      Data: 38
    - Name: <SyncMode>k__BackingField
      Entry: 7
      Data: System.Nullable`1[[UdonSharp.UdonSyncMode, UdonSharp.Runtime]], mscorlib
    - Name: 
      Entry: 6
      Data: 
    - Name: 
      Entry: 8
      Data: 
    - Name: <IsSerialized>k__BackingField
      Entry: 5
      Data: false
    - Name: _fieldAttributes
      Entry: 7
      Data: 114|System.Collections.Generic.List`1[[System.Attribute, mscorlib]],
        mscorlib
    - Name: 
      Entry: 12
      Data: 1
    - Name: 
      Entry: 7
      Data: 115|System.NonSerializedAttribute, mscorlib
    - Name: 
      Entry: 8
      Data: 
    - Name: 
      Entry: 13
      Data: 
    - Name: 
      Entry: 8
      Data: 
    - Name: 
      Entry: 8
      Data: 
    - Name: 
      Entry: 8
      Data: 
    - Name: 
      Entry: 7
      Data: 
    - Name: $k
      Entry: 1
      Data: superUsers
    - Name: $v
      Entry: 7
      Data: 116|UdonSharp.Compiler.FieldDefinition, UdonSharp.Editor
    - Name: <Name>k__BackingField
      Entry: 1
      Data: superUsers
    - Name: <UserType>k__BackingField
      Entry: 9
      Data: 59
    - Name: <SystemType>k__BackingField
      Entry: 9
      Data: 59
    - Name: <SyncMode>k__BackingField
      Entry: 7
      Data: System.Nullable`1[[UdonSharp.UdonSyncMode, UdonSharp.Runtime]], mscorlib
    - Name: 
      Entry: 6
      Data: 
    - Name: 
      Entry: 8
      Data: 
    - Name: <IsSerialized>k__BackingField
      Entry: 5
      Data: true
    - Name: _fieldAttributes
      Entry: 7
      Data: 117|System.Collections.Generic.List`1[[System.Attribute, mscorlib]],
        mscorlib
    - Name: 
      Entry: 12
      Data: 1
    - Name: 
      Entry: 7
      Data: 118|UnityEngine.SerializeField, UnityEngine.CoreModule
    - Name: 
      Entry: 8
      Data: 
    - Name: 
      Entry: 13
      Data: 
    - Name: 
      Entry: 8
      Data: 
    - Name: 
      Entry: 8
      Data: 
    - Name: 
      Entry: 8
      Data: 
    - Name: 
      Entry: 7
      Data: 
    - Name: $k
      Entry: 1
      Data: authorizedUsers
    - Name: $v
      Entry: 7
      Data: 119|UdonSharp.Compiler.FieldDefinition, UdonSharp.Editor
    - Name: <Name>k__BackingField
      Entry: 1
      Data: authorizedUsers
    - Name: <UserType>k__BackingField
      Entry: 9
      Data: 59
    - Name: <SystemType>k__BackingField
      Entry: 9
      Data: 59
    - Name: <SyncMode>k__BackingField
      Entry: 7
      Data: System.Nullable`1[[UdonSharp.UdonSyncMode, UdonSharp.Runtime]], mscorlib
    - Name: 
      Entry: 6
      Data: 
    - Name: 
      Entry: 8
      Data: 
    - Name: <IsSerialized>k__BackingField
      Entry: 5
      Data: true
    - Name: _fieldAttributes
      Entry: 7
      Data: 120|System.Collections.Generic.List`1[[System.Attribute, mscorlib]],
        mscorlib
    - Name: 
      Entry: 12
      Data: 1
    - Name: 
      Entry: 7
      Data: 121|UnityEngine.SerializeField, UnityEngine.CoreModule
    - Name: 
      Entry: 8
      Data: 
    - Name: 
      Entry: 13
      Data: 
    - Name: 
      Entry: 8
      Data: 
    - Name: 
      Entry: 8
      Data: 
    - Name: 
      Entry: 8
      Data: 
    - Name: 
      Entry: 7
      Data: 
    - Name: $k
      Entry: 1
      Data: secureWhitelist
    - Name: $v
      Entry: 7
      Data: 122|UdonSharp.Compiler.FieldDefinition, UdonSharp.Editor
    - Name: <Name>k__BackingField
      Entry: 1
      Data: secureWhitelist
    - Name: <UserType>k__BackingField
      Entry: 9
      Data: 38
    - Name: <SystemType>k__BackingField
      Entry: 9
      Data: 38
    - Name: <SyncMode>k__BackingField
      Entry: 7
      Data: System.Nullable`1[[UdonSharp.UdonSyncMode, UdonSharp.Runtime]], mscorlib
    - Name: 
      Entry: 6
      Data: 
    - Name: 
      Entry: 8
      Data: 
    - Name: <IsSerialized>k__BackingField
      Entry: 5
      Data: true
    - Name: _fieldAttributes
      Entry: 7
      Data: 123|System.Collections.Generic.List`1[[System.Attribute, mscorlib]],
        mscorlib
    - Name: 
      Entry: 12
      Data: 1
    - Name: 
      Entry: 7
      Data: 124|UnityEngine.SerializeField, UnityEngine.CoreModule
    - Name: 
      Entry: 8
      Data: 
    - Name: 
      Entry: 13
      Data: 
    - Name: 
      Entry: 8
      Data: 
    - Name: 
      Entry: 8
      Data: 
    - Name: 
      Entry: 8
      Data: 
    - Name: 
      Entry: 7
      Data: 
    - Name: $k
      Entry: 1
      Data: superhash
    - Name: $v
      Entry: 7
      Data: 125|UdonSharp.Compiler.FieldDefinition, UdonSharp.Editor
    - Name: <Name>k__BackingField
      Entry: 1
      Data: superhash
    - Name: <UserType>k__BackingField
      Entry: 7
      Data: 126|System.RuntimeType, mscorlib
    - Name: 
      Entry: 1
      Data: System.Int32[], mscorlib
    - Name: 
      Entry: 8
      Data: 
    - Name: <SystemType>k__BackingField
      Entry: 9
      Data: 126
    - Name: <SyncMode>k__BackingField
      Entry: 7
      Data: System.Nullable`1[[UdonSharp.UdonSyncMode, UdonSharp.Runtime]], mscorlib
    - Name: 
      Entry: 6
      Data: 
    - Name: 
      Entry: 8
      Data: 
    - Name: <IsSerialized>k__BackingField
      Entry: 5
      Data: false
    - Name: _fieldAttributes
      Entry: 7
      Data: 127|System.Collections.Generic.List`1[[System.Attribute, mscorlib]],
        mscorlib
    - Name: 
      Entry: 12
      Data: 0
    - Name: 
      Entry: 13
      Data: 
    - Name: 
      Entry: 8
      Data: 
    - Name: 
      Entry: 8
      Data: 
    - Name: 
      Entry: 8
      Data: 
    - Name: 
      Entry: 7
      Data: 
    - Name: $k
      Entry: 1
      Data: authorizedList
    - Name: $v
      Entry: 7
      Data: 128|UdonSharp.Compiler.FieldDefinition, UdonSharp.Editor
    - Name: <Name>k__BackingField
      Entry: 1
      Data: authorizedList
    - Name: <UserType>k__BackingField
      Entry: 9
      Data: 59
    - Name: <SystemType>k__BackingField
      Entry: 9
      Data: 59
    - Name: <SyncMode>k__BackingField
      Entry: 7
      Data: System.Nullable`1[[UdonSharp.UdonSyncMode, UdonSharp.Runtime]], mscorlib
    - Name: 
      Entry: 3
      Data: 1
    - Name: 
      Entry: 8
      Data: 
    - Name: <IsSerialized>k__BackingField
      Entry: 5
      Data: false
    - Name: _fieldAttributes
      Entry: 7
      Data: 129|System.Collections.Generic.List`1[[System.Attribute, mscorlib]],
        mscorlib
    - Name: 
      Entry: 12
      Data: 1
    - Name: 
      Entry: 7
      Data: 130|UdonSharp.UdonSyncedAttribute, UdonSharp.Runtime
    - Name: 
      Entry: 8
      Data: 
    - Name: 
      Entry: 13
      Data: 
    - Name: 
      Entry: 8
      Data: 
    - Name: 
      Entry: 8
      Data: 
    - Name: 
      Entry: 8
      Data: 
    - Name: 
      Entry: 7
      Data: 
    - Name: $k
      Entry: 1
      Data: playerNames
    - Name: $v
      Entry: 7
      Data: 131|UdonSharp.Compiler.FieldDefinition, UdonSharp.Editor
    - Name: <Name>k__BackingField
      Entry: 1
      Data: playerNames
    - Name: <UserType>k__BackingField
      Entry: 9
      Data: 59
    - Name: <SystemType>k__BackingField
      Entry: 9
      Data: 59
    - Name: <SyncMode>k__BackingField
      Entry: 7
      Data: System.Nullable`1[[UdonSharp.UdonSyncMode, UdonSharp.Runtime]], mscorlib
    - Name: 
      Entry: 6
      Data: 
    - Name: 
      Entry: 8
      Data: 
    - Name: <IsSerialized>k__BackingField
      Entry: 5
      Data: false
    - Name: _fieldAttributes
      Entry: 7
      Data: 132|System.Collections.Generic.List`1[[System.Attribute, mscorlib]],
        mscorlib
    - Name: 
      Entry: 12
      Data: 0
    - Name: 
      Entry: 13
      Data: 
    - Name: 
      Entry: 8
      Data: 
    - Name: 
      Entry: 8
      Data: 
    - Name: 
      Entry: 8
      Data: 
    - Name: 
      Entry: 7
      Data: 
    - Name: $k
      Entry: 1
      Data: playerApis
    - Name: $v
      Entry: 7
      Data: 133|UdonSharp.Compiler.FieldDefinition, UdonSharp.Editor
    - Name: <Name>k__BackingField
      Entry: 1
      Data: playerApis
    - Name: <UserType>k__BackingField
      Entry: 7
      Data: 134|System.RuntimeType, mscorlib
    - Name: 
      Entry: 1
      Data: VRC.SDKBase.VRCPlayerApi[], VRCSDKBase
    - Name: 
      Entry: 8
      Data: 
    - Name: <SystemType>k__BackingField
      Entry: 9
      Data: 134
    - Name: <SyncMode>k__BackingField
      Entry: 7
      Data: System.Nullable`1[[UdonSharp.UdonSyncMode, UdonSharp.Runtime]], mscorlib
    - Name: 
      Entry: 6
      Data: 
    - Name: 
      Entry: 8
      Data: 
    - Name: <IsSerialized>k__BackingField
      Entry: 5
      Data: false
    - Name: _fieldAttributes
      Entry: 7
      Data: 135|System.Collections.Generic.List`1[[System.Attribute, mscorlib]],
        mscorlib
    - Name: 
      Entry: 12
      Data: 0
    - Name: 
      Entry: 13
      Data: 
    - Name: 
      Entry: 8
      Data: 
    - Name: 
      Entry: 8
      Data: 
    - Name: 
      Entry: 8
      Data: 
    - Name: 
      Entry: 7
      Data: 
    - Name: $k
      Entry: 1
      Data: isTvReady
    - Name: $v
      Entry: 7
      Data: 136|UdonSharp.Compiler.FieldDefinition, UdonSharp.Editor
    - Name: <Name>k__BackingField
      Entry: 1
      Data: isTvReady
    - Name: <UserType>k__BackingField
      Entry: 9
      Data: 38
    - Name: <SystemType>k__BackingField
      Entry: 9
      Data: 38
    - Name: <SyncMode>k__BackingField
      Entry: 7
      Data: System.Nullable`1[[UdonSharp.UdonSyncMode, UdonSharp.Runtime]], mscorlib
    - Name: 
      Entry: 6
      Data: 
    - Name: 
      Entry: 8
      Data: 
    - Name: <IsSerialized>k__BackingField
      Entry: 5
      Data: false
    - Name: _fieldAttributes
      Entry: 7
      Data: 137|System.Collections.Generic.List`1[[System.Attribute, mscorlib]],
        mscorlib
    - Name: 
      Entry: 12
      Data: 0
    - Name: 
      Entry: 13
      Data: 
    - Name: 
      Entry: 8
      Data: 
    - Name: 
      Entry: 8
      Data: 
    - Name: 
      Entry: 8
      Data: 
    - Name: 
      Entry: 13
      Data: 
    - Name: 
      Entry: 8
      Data: 
